…
reference_meta_wo_banded
```

    ## # A tibble: 92 x 8
    ##    `MWVCRC#`    pop   Sample_Plate Sample_Well Location    id    gtseq~1 Loc-A~2
    ##    <chr>        <chr> <chr>        <chr>       <chr>       <chr> <chr>   <chr>  
    ##  1 BFAL-KURE-01 Kure  BFAL002      A07         Kure Atoll~ s337  gtseq5  NWHI, ~
    ##  2 BFAL-KURE-02 Kure  BFAL002      B07         Kure Atoll~ s338  gtseq5  NWHI, ~
    ##  3 BFAL-KURE-03 Kure  BFAL002      C07         Kure Atoll~ s339  gtseq5  NWHI, ~
    ##  4 BFAL-KURE-04 Kure  BFAL002      D07         Kure Atoll~ s340  gtseq5  NWHI, ~
    ##  5 BFAL-KURE-05 Kure  BFAL002      E07         Kure Atoll~ s341  gtseq5  NWHI, ~
    ##  6 BFAL-KURE-06 Kure  BFAL002      F07         Kure Atoll~ s342  gtseq5  NWHI, ~
    ##  7 BFAL-KURE-07 Kure  BFAL002      G07         Kure Atoll~ s343  gtseq5  NWHI, ~
    ##  8 BFAL-KURE-08 Kure  BFAL002      H07         Kure Atoll~ s344  gtseq5  NWHI, ~
    ##  9 BFAL-KURE-09 Kure  BFAL002      A08         Kure Atoll~ s345  gtseq5  NWHI, ~
    ## 10 BFAL-KURE-10 Kure  BFAL002      B08         Kure Atoll~ s346  gtseq5  NWHI, ~
    ## # ... with 82 more rows, and abbreviated variable names 1: gtseq_run,
    ## #   2: `Loc-Abbr`
…
